<svg viewBox="0 0 200 200" fill="none" xmlns="http://www.w3.org/2000/svg">
<circle cx="100" cy="100" r="21" transform="rotate(105 100 100)" fill="#C4C4C4"/>
<ellipse cx="157.956" cy="115.529" rx="11" ry="33" transform="rotate(105 157.956 115.529)" fill="#C4C4C4"/>
<ellipse cx="42.0445" cy="84.4709" rx="11" ry="33" transform="rotate(105 42.0445 84.4709)" fill="#C4C4C4"/>
<ellipse cx="84.4709" cy="157.956" rx="11" ry="33" transform="rotate(-165 84.4709 157.956)" fill="#C4C4C4"/>
<ellipse cx="115.529" cy="42.0445" rx="11" ry="33" transform="rotate(-165 115.529 42.0445)" fill="#C4C4C4"/>
</svg>
