<svg viewBox="0 0 200 200" fill="none" xmlns="http://www.w3.org/2000/svg">
<g clip-path="url(#clip0)">
<path fill-rule="evenodd" clip-rule="evenodd" d="M86 110.96C77.7157 110.96 71 117.676 71 125.96V151.493H128V125.96C128 117.676 121.284 110.96 113 110.96H86ZM128 181.893H71V187.16C71 195.444 77.7157 202.16 86 202.16H113C121.284 202.16 128 195.444 128 187.16V181.893Z" fill="#C4C4C4"/>
<rect x="69.8229" y="157.712" width="58.2667" height="10.1333" rx="4" transform="rotate(-4 69.8229 157.712)" fill="#C4C4C4"/>
<rect x="69.8229" y="170.378" width="58.2667" height="10.1333" rx="4" transform="rotate(-4 69.8229 170.378)" fill="#C4C4C4"/>
<circle cx="99.5" cy="94.5" r="47.5" fill="#C4C4C4"/>
</g>
<defs>
<clipPath id="clip0">
<rect width="200" height="200" fill="white"/>
</clipPath>
</defs>
</svg>
